Modules/Sequential/output/Prob_5_47.vcd
$date
	Tue Nov 19 09:50:13 2024
$end
$version
	Icarus Verilog
$end
$timescale
	1s
$end
$scope module t_5_47 $end
$var wire 4 ! state [3:0] $end
$var reg 1 " clock $end
$var reg 1 # reset $end
$var reg 1 $ run $end
$scope module P1 $end
$var wire 1 " clock $end
$var wire 1 # reset $end
$var wire 1 $ run $end
$var reg 4 % state [3:0] $end
$upscope $end
$upscope $end
ire 1 $ run $end
$var wire 4 ( s [3:0] $end
$var wire 1 ) nD $end
$var wire 1 * nC $end
$var wire 1 + nB $end
$var wire 1 , nA $end
$var wire 1 - dd $end
$scope module D1 $end
$var wire 1 % D $end
$var wire 1 " clock $end
$var wire 1 # reset $end
$var reg 1 . Q $end
$var reg 1 , nQ $end
$upscope $end
$scope module D2 $end
$var wire 1 & D $end
$var wire 1 " clock $end
$var wire 1 # reset $end
$var reg 1 / Q $end
$var reg 1 + nQ $end
$upscope $end
$scope module D3 $end
$var wire 1 ' D $end
$var wire 1 " clock $end
$var wire 1 # reset $end
$var reg 1 0 Q $end
$var reg 1 * nQ $end
$upscope $end
$scope module D4 $end
$var wire 1 - D $end
$var wire 1 " clock $end
$var wire 1 # reset $end
$var reg 1 1 Q $end
$var reg 1 ) nQ $end
$upscope $end
$upscope $end
$upscope $end
$enddefinitions $end
$comment Show the parameter values. $end
$dumpall
$end
#0
$dumpvars
01
00
0/
0.
0-
x,
x+
x*
x)
b0 (
x'
0&
1%
x$
0#
0"
b0 !
$end
#5
1)
1+
0,
1"
#10
1'
0"
1#
1$
#15
0'
1&
0%
1.
0*
b101 !
b101 (
10
1"
#20
0"
#25
1'
1%
1*
00
0+
1/
1,
b10 !
b10 (
0.
1"
#30
0'
0"
0$
#35
0&
0%
0,
b11 !
b11 (
1.
1"
#40
0"
#45
1%
1+
0/
1,
b0 !
b0 (
0.
1"
#50
1'
0"
1$
#55
0'
1&
0%
0,
1.
0*
b101 !
b101 (
10
1"
#60
0"
#65
1'
1%
1*
00
0+
1/
1,
b10 !
b10 (
0.
1"
#70
0'
0"
0$
#75
0&
0%
0,
b11 !
b11 (
1.
1"
#80
0"
#85
1%
1+
0/
1,
b0 !
b0 (
0.
1"
#90
0,
0"
0#
#95
1"
#100
0"
#105
1"
#110
0"
#115
1"
#120
0"
1#
#125
1&
0%
b1 !
b1 (
1.
1"
#130
0"
#135
1%
0+
1/
1,
b10 !
b10 (
0.
1"
#140
0"
#145
0&
0%
0,
b11 !
b11 (
1.
1"
#150
1'
0"
1$
#155
0'
1%
0*
10
1+
0/
1,
b100 !
b100 (
0.
1"
#160
0"
#165
1'
1&
0%
0,
1.
1*
b1 !
b1 (
00
1"
#170
0"
#175
0'
1%
0*
10
0+
1/
1,
b110 !
b110 (
0.
1"
#180
1'
0"
0$
#185
0&
0%
0,
b111 !
b111 (
1.
1"
#190
0"
#195
1%
1+
0/
1,
b100 !
b100 (
0.
1"
#200
0'
0"
1$
#205
1'
1&
0%
0,
1.
1*
b1 !
b1 (
00
1"
#210
0"
#215
0'
1%
0*
10
0+
1/
1,
b110 !
b110 (
0.
1"
#220
0"
#225
1'
0&
0%
0,
1.
1*
b11 !
b11 (
00
1"
#230
0"
#235
0'
1%
0*
10
1+
0/
1,
b100 !
b100 (
0.
1"
#240
0"
#245
1'
1&
0%
0,
1.
1*
b1 !
b1 (
00
1"
#250
0"
#255
0'
1%
0*
10
0+
1/
1,
b110 !
b110 (
0.
1"
#260
0"
#265
1'
0&
0%
0,
1.
1*
b11 !
b11 (
00
1"
#270
0"
#275
0'
1%
0*
10
1+
0/
1,
b100 !
b100 (
0.
1"
#280
0"
#285
1'
1&
0%
0,
1.
1*
b1 !
b1 (
00
1"
#290
0"
#295
0'
1%
0*
10
0+
1/
1,
b110 !
b110 (
0.
1"
#300
0"
#305
1'
0&
0%
0,
1.
1*
b11 !
b11 (
00
1"
#310
0"
#315
0'
1%
0*
10
1+
0/
1,
b100 !
b100 (
0.
1"
#320
0"
#325
1'
1&
0%
0,
1.
1*
b1 !
b1 (
00
1"
#330
0"
#335
0'
1%
0*
10
0+
1/
1,
b110 !
b110 (
0.
1"
#340
0"
#345
1'
0&
0%
0,
1.
1*
b11 !
b11 (
00
1"
#350
0"
#355
0'
1%
0*
10
1+
0/
1,
b100 !
b100 (
0.
1"
#360
0"
#365
1'
1&
0%
0,
1.
1*
b1 !
b1 (
00
1"
#370
0"
#375
0'
1%
0*
10
0+
1/
1,
b110 !
b110 (
0.
1"
#380
0"
#385
1'
0&
0%
0,
1.
1*
b11 !
b11 (
00
1"
#390
0"
#395
0'
1%
0*
10
1+
0/
1,
b100 !
b100 (
0.
1"
